{
  "client": [
    {
      "services": {
        "appinvite_service": {
          "status": 1
        }, 
        "analytics_service": {
          "status": 0
        }
      }, 
      "oauth_client": [
        {
          "client_id": "1044763015013-6rdhha7m2rsen2vt1i3fs5i7nfk38lbf.apps.googleusercontent.com"
        }
      ], 
      "api_key": [
        {
          "current_key": "AIzaSyCVjIpwXGiDDi0w81oY91mQYblyh1v0rfE"
        }
      ], 
      "client_info": {
        "mobilesdk_app_id": "1:1044763015013:ios:e1ab90a96c35f0f6fcd38c", 
        "android_client_info": {
          "package_name": "com.zenga.mypatience"
        }
      }
    }
  ], 
  "configuration_version": "1", 
  "project_info": {
    "storage_bucket": "my-patience.appspot.com", 
    "project_id": "my-patience", 
    "firebase_url": "https://my-patience.firebaseio.com", 
    "project_number": "1044763015013"
  }
}