[api-updater (non-obsolete-error-filter)] 11/18/2021 3:21:50 PM : Starting /Applications/Unity/Hub/Editor/2020.3.19f1/Unity.app/Contents/Tools/ScriptUpdater/APIUpdater.NonObsoleteApiUpdaterDetector.exe
[api-updater (non-obsolete-error-filter)] 
----------------------------------
jit/startup time      : 327.472ms
moved types parse time: 132ms
candidates parse time : 10ms
C# parse time         : 1100ms
candidates check time : 532ms
console write time    : 1ms

[api-updater (non-obsolete-error-filter)] 11/18/2021 3:22:43 PM : Starting /Applications/Unity/Hub/Editor/2020.3.19f1/Unity.app/Contents/Tools/ScriptUpdater/APIUpdater.NonObsoleteApiUpdaterDetector.exe
[api-updater (non-obsolete-error-filter)] 
----------------------------------
jit/startup time      : 281.2ms
moved types parse time: 158ms
candidates parse time : 7ms
C# parse time         : 545ms
candidates check time : 108ms
console write time    : 1ms

[api-updater (non-obsolete-error-filter)] 11/18/2021 3:23:39 PM : Starting /Applications/Unity/Hub/Editor/2020.3.19f1/Unity.app/Contents/Tools/ScriptUpdater/APIUpdater.NonObsoleteApiUpdaterDetector.exe
[api-updater (non-obsolete-error-filter)] 
----------------------------------
jit/startup time      : 210.922ms
moved types parse time: 140ms
candidates parse time : 5ms
C# parse time         : 438ms
candidates check time : 106ms
console write time    : 2ms

[api-updater (non-obsolete-error-filter)] 11/18/2021 3:23:50 PM : Starting /Applications/Unity/Hub/Editor/2020.3.19f1/Unity.app/Contents/Tools/ScriptUpdater/APIUpdater.NonObsoleteApiUpdaterDetector.exe
[api-updater (non-obsolete-error-filter)] 
----------------------------------
jit/startup time      : 131.819ms
moved types parse time: 136ms
candidates parse time : 6ms
C# parse time         : 418ms
candidates check time : 94ms
console write time    : 0ms

[api-updater (non-obsolete-error-filter)] 11/18/2021 3:46:31 PM : Starting /Applications/Unity/Hub/Editor/2020.3.19f1/Unity.app/Contents/Tools/ScriptUpdater/APIUpdater.NonObsoleteApiUpdaterDetector.exe
[api-updater (non-obsolete-error-filter)] 
----------------------------------
jit/startup time      : 330.713ms
moved types parse time: 139ms
candidates parse time : 6ms
C# parse time         : 546ms
candidates check time : 132ms
console write time    : 1ms

[api-updater (non-obsolete-error-filter)] 11/18/2021 3:46:32 PM : Starting /Applications/Unity/Hub/Editor/2020.3.19f1/Unity.app/Contents/Tools/ScriptUpdater/APIUpdater.NonObsoleteApiUpdaterDetector.exe
[api-updater (non-obsolete-error-filter)] 
----------------------------------
jit/startup time      : 114.78ms
moved types parse time: 127ms
candidates parse time : 6ms
C# parse time         : 435ms
candidates check time : 106ms
console write time    : 0ms

[api-updater (non-obsolete-error-filter)] 11/23/2021 12:22:32 PM : Starting /Applications/Unity/Hub/Editor/2020.3.19f1/Unity.app/Contents/Tools/ScriptUpdater/APIUpdater.NonObsoleteApiUpdaterDetector.exe
[api-updater (non-obsolete-error-filter)] 
----------------------------------
jit/startup time      : 355.916ms
moved types parse time: 134ms
candidates parse time : 6ms
C# parse time         : 420ms
candidates check time : 116ms
console write time    : 1ms

[api-updater (non-obsolete-error-filter)] 11/23/2021 12:22:39 PM : Starting /Applications/Unity/Hub/Editor/2020.3.19f1/Unity.app/Contents/Tools/ScriptUpdater/APIUpdater.NonObsoleteApiUpdaterDetector.exe
[api-updater (non-obsolete-error-filter)] 
----------------------------------
jit/startup time      : 222.687ms
moved types parse time: 194ms
candidates parse time : 6ms
C# parse time         : 612ms
candidates check time : 186ms
console write time    : 2ms

[api-updater (non-obsolete-error-filter)] 11/23/2021 12:22:44 PM : Starting /Applications/Unity/Hub/Editor/2020.3.19f1/Unity.app/Contents/Tools/ScriptUpdater/APIUpdater.NonObsoleteApiUpdaterDetector.exe
[api-updater (non-obsolete-error-filter)] 
----------------------------------
jit/startup time      : 202.47ms
moved types parse time: 164ms
candidates parse time : 8ms
C# parse time         : 515ms
candidates check time : 199ms
console write time    : 1ms

[api-updater (non-obsolete-error-filter)] 11/23/2021 12:22:51 PM : Starting /Applications/Unity/Hub/Editor/2020.3.19f1/Unity.app/Contents/Tools/ScriptUpdater/APIUpdater.NonObsoleteApiUpdaterDetector.exe
[api-updater (non-obsolete-error-filter)] 
----------------------------------
jit/startup time      : 151.954ms
moved types parse time: 136ms
candidates parse time : 6ms
C# parse time         : 557ms
candidates check time : 169ms
console write time    : 1ms

[api-updater (non-obsolete-error-filter)] 11/23/2021 12:22:56 PM : Starting /Applications/Unity/Hub/Editor/2020.3.19f1/Unity.app/Contents/Tools/ScriptUpdater/APIUpdater.NonObsoleteApiUpdaterDetector.exe
[api-updater (non-obsolete-error-filter)] 
----------------------------------
jit/startup time      : 183.354ms
moved types parse time: 130ms
candidates parse time : 5ms
C# parse time         : 494ms
candidates check time : 111ms
console write time    : 1ms

